<?xml version="1.0" encoding="UTF-8"?>
<session version="1.0">
<refactoring accessors="true" comment="Delete element from project &apos;lafore_Sorting&apos;&#x0D;&#x0A;- Original project: &apos;lafore_Sorting&apos;&#x0D;&#x0A;- Original element: &apos;lafore_Sorting/src/cgpa&apos;" description="Delete element" element1="/src&lt;cgpa" elements="1" flags="589830" id="org.eclipse.jdt.ui.delete" resources="0" stamp="1494090044732" subPackages="false" version="1.0"/>
</session>