<?xml version="1.0" encoding="UTF-8"?>
<session version="1.0">
<refactoring comment="Rename type &apos;superclass.GeometricObject1&apos; to &apos;Vehicle&apos;&#x0D;&#x0A;- Original project: &apos;TopicWise&apos;&#x0D;&#x0A;- Original element: &apos;superclass.GeometricObject1&apos;&#x0D;&#x0A;- Renamed element: &apos;superclass.Vehicle&apos;&#x0D;&#x0A;- Update references to refactored element&#x0D;&#x0A;- Update textual occurrences in comments and strings" description="Rename type &apos;GeometricObject1&apos;" flags="589830" id="org.eclipse.jdt.ui.rename.type" input="/src&lt;superclass{GeometricObject1.java[GeometricObject1" matchStrategy="1" name="Vehicle" qualified="false" references="true" similarDeclarations="false" stamp="1459096018058" textual="false" version="1.0"/>
</session>