<?xml version="1.0" encoding="UTF-8"?>
<session version="1.0">
<refactoring comment="Rename local variable &apos;i&apos; in &apos;trr.Sum_of_Matrix.main(...)&apos; to &apos;j&apos;&#x0D;&#x0A;- Original project: &apos;lab003&apos;&#x0D;&#x0A;- Original element: &apos;trr.Sum_of_Matrix.main(String[]).i&apos;&#x0D;&#x0A;- Renamed element: &apos;i&apos;&#x0D;&#x0A;- Update references to refactored element" description="Rename local variable &apos;i&apos;" id="org.eclipse.jdt.ui.rename.local.variable" input="/src&lt;trr{Sum_of_Matrix.java[Sum_of_Matrix~main~\[QString;@i!705!711!709!709!I!0!false" name="j" references="true" stamp="1455003815149" version="1.0"/>
</session>