<?xml version="1.0" encoding="UTF-8"?>
<session version="1.0">
<refactoring comment="Delete resource &apos;DSARoberLafore&apos;" deleteContents="false" description="Delete resource &apos;DSARoberLafore&apos;" element1="/DSARoberLafore" flags="7" id="org.eclipse.ltk.core.refactoring.delete.resources" resources="1" stamp="1485801962068"/>
</session>