<?xml version="1.0" encoding="UTF-8"?>
<session version="1.0">
<refactoring comment="Rename compilation unit &apos;code.Gameboard.java&apos; to &apos;GameBoard.java&apos;&#x0D;&#x0A;- Original project: &apos;Gaming TRR&apos;&#x0D;&#x0A;- Original element: &apos;code.Gameboard.java&apos;&#x0D;&#x0A;- Renamed element: &apos;code.GameBoard.java&apos;" description="Rename compilation unit &apos;Gameboard.java&apos;" flags="2" id="org.eclipse.jdt.ui.rename.compilationunit" input="/src&lt;code{Gameboard.java" name="GameBoard.java" references="false" stamp="1459432706915" version="1.0"/>
</session>